^C:\USERS\ANDREI\DESKTOP\PROJECT-SMC_2020\MYSTERIUM\LOGGER\LOGGER\X64\DEBUG\CARDLOGGER.OBJ|C:\USERS\ANDREI\DESKTOP\PROJECT-SMC_2020\MYSTERIUM\LOGGER\LOGGER\X64\DEBUG\GAMEEVENTLOGGER.OBJ|C:\USERS\ANDREI\DESKTOP\PROJECT-SMC_2020\MYSTERIUM\LOGGER\LOGGER\X64\DEBUG\GHOSTLOGGER.OBJ|C:\USERS\ANDREI\DESKTOP\PROJECT-SMC_2020\MYSTERIUM\LOGGER\LOGGER\X64\DEBUG\PLAYERLOGGER.OBJ
C:\PROGRAM FILES (X86)\WINDOWS KITS\10\LIB\10.0.18362.0\UM\X64\KERNEL32.LIB
C:\PROGRAM FILES (X86)\WINDOWS KITS\10\LIB\10.0.18362.0\UM\X64\USER32.LIB
C:\PROGRAM FILES (X86)\WINDOWS KITS\10\LIB\10.0.18362.0\UM\X64\GDI32.LIB
C:\PROGRAM FILES (X86)\WINDOWS KITS\10\LIB\10.0.18362.0\UM\X64\WINSPOOL.LIB
C:\PROGRAM FILES (X86)\WINDOWS KITS\10\LIB\10.0.18362.0\UM\X64\COMDLG32.LIB
C:\PROGRAM FILES (X86)\WINDOWS KITS\10\LIB\10.0.18362.0\UM\X64\ADVAPI32.LIB
C:\PROGRAM FILES (X86)\WINDOWS KITS\10\LIB\10.0.18362.0\UM\X64\SHELL32.LIB
C:\PROGRAM FILES (X86)\WINDOWS KITS\10\LIB\10.0.18362.0\UM\X64\OLE32.LIB
C:\PROGRAM FILES (X86)\WINDOWS KITS\10\LIB\10.0.18362.0\UM\X64\OLEAUT32.LIB
C:\PROGRAM FILES (X86)\WINDOWS KITS\10\LIB\10.0.18362.0\UM\X64\UUID.LIB
C:\PROGRAM FILES (X86)\WINDOWS KITS\10\LIB\10.0.18362.0\UM\X64\ODBC32.LIB
C:\PROGRAM FILES (X86)\WINDOWS KITS\10\LIB\10.0.18362.0\UM\X64\ODBCCP32.LIB
C:\USERS\ANDREI\DESKTOP\PROJECT-SMC_2020\MYSTERIUM\LOGGER\LOGGER\X64\DEBUG\GAMEEVENTLOGGER.OBJ
C:\USERS\ANDREI\DESKTOP\PROJECT-SMC_2020\MYSTERIUM\LOGGER\LOGGER\X64\DEBUG\GHOSTLOGGER.OBJ
C:\USERS\ANDREI\DESKTOP\PROJECT-SMC_2020\MYSTERIUM\LOGGER\LOGGER\X64\DEBUG\CARDLOGGER.OBJ
C:\USERS\ANDREI\DESKTOP\PROJECT-SMC_2020\MYSTERIUM\LOGGER\LOGGER\X64\DEBUG\PLAYERLOGGER.OBJ
C:\WINDOWS\GLOBALIZATION\SORTING\SORTDEFAULT.NLS
C:\PROGRAM FILES (X86)\MICROSOFT VISUAL STUDIO\2019\COMMUNITY\VC\TOOLS\MSVC\14.23.28105\LIB\X64\MSVCPRTD.LIB
C:\PROGRAM FILES (X86)\MICROSOFT VISUAL STUDIO\2019\COMMUNITY\VC\TOOLS\MSVC\14.23.28105\LIB\X64\MSVCRTD.LIB
C:\PROGRAM FILES (X86)\MICROSOFT VISUAL STUDIO\2019\COMMUNITY\VC\TOOLS\MSVC\14.23.28105\LIB\X64\OLDNAMES.LIB
C:\PROGRAM FILES (X86)\MICROSOFT VISUAL STUDIO\2019\COMMUNITY\VC\TOOLS\MSVC\14.23.28105\LIB\X64\VCRUNTIMED.LIB
C:\PROGRAM FILES (X86)\WINDOWS KITS\10\LIB\10.0.18362.0\UCRT\X64\UCRTD.LIB
C:\WINDOWS\SYSTEM32\TZRES.DLL
C:\PROGRAM FILES (X86)\MICROSOFT VISUAL STUDIO\2019\COMMUNITY\VC\TOOLS\MSVC\14.23.28105\BIN\HOSTX86\X64\1033\LINKUI.DLL
C:\PROGRAM FILES (X86)\MICROSOFT VISUAL STUDIO\2019\COMMUNITY\VC\TOOLS\MSVC\14.23.28105\BIN\HOSTX86\X64\CVTRES.EXE
C:\PROGRAM FILES (X86)\MICROSOFT VISUAL STUDIO\2019\COMMUNITY\VC\TOOLS\MSVC\14.23.28105\BIN\HOSTX86\X64\MSPDBSRV.EXE
^C:\USERS\ANDREI\DESKTOP\PROIECTE\PROIECT C++\MYSTERIUM\LOGGER\LOGGER\X64\DEBUG\CARDLOGGER.OBJ|C:\USERS\ANDREI\DESKTOP\PROIECTE\PROIECT C++\MYSTERIUM\LOGGER\LOGGER\X64\DEBUG\GAMEEVENTLOGGER.OBJ|C:\USERS\ANDREI\DESKTOP\PROIECTE\PROIECT C++\MYSTERIUM\LOGGER\LOGGER\X64\DEBUG\GHOSTLOGGER.OBJ|C:\USERS\ANDREI\DESKTOP\PROIECTE\PROIECT C++\MYSTERIUM\LOGGER\LOGGER\X64\DEBUG\PLAYERLOGGER.OBJ
C:\PROGRAM FILES (X86)\WINDOWS KITS\10\LIB\10.0.18362.0\UM\X64\KERNEL32.LIB
C:\PROGRAM FILES (X86)\WINDOWS KITS\10\LIB\10.0.18362.0\UM\X64\USER32.LIB
C:\PROGRAM FILES (X86)\WINDOWS KITS\10\LIB\10.0.18362.0\UM\X64\GDI32.LIB
C:\PROGRAM FILES (X86)\WINDOWS KITS\10\LIB\10.0.18362.0\UM\X64\WINSPOOL.LIB
C:\PROGRAM FILES (X86)\WINDOWS KITS\10\LIB\10.0.18362.0\UM\X64\COMDLG32.LIB
C:\PROGRAM FILES (X86)\WINDOWS KITS\10\LIB\10.0.18362.0\UM\X64\ADVAPI32.LIB
C:\PROGRAM FILES (X86)\WINDOWS KITS\10\LIB\10.0.18362.0\UM\X64\SHELL32.LIB
C:\PROGRAM FILES (X86)\WINDOWS KITS\10\LIB\10.0.18362.0\UM\X64\OLE32.LIB
C:\PROGRAM FILES (X86)\WINDOWS KITS\10\LIB\10.0.18362.0\UM\X64\OLEAUT32.LIB
C:\PROGRAM FILES (X86)\WINDOWS KITS\10\LIB\10.0.18362.0\UM\X64\UUID.LIB
C:\PROGRAM FILES (X86)\WINDOWS KITS\10\LIB\10.0.18362.0\UM\X64\ODBC32.LIB
C:\PROGRAM FILES (X86)\WINDOWS KITS\10\LIB\10.0.18362.0\UM\X64\ODBCCP32.LIB
C:\USERS\ANDREI\DESKTOP\PROIECTE\PROIECT C++\MYSTERIUM\LOGGER\LOGGER\X64\DEBUG\GAMEEVENTLOGGER.OBJ
C:\USERS\ANDREI\DESKTOP\PROIECTE\PROIECT C++\MYSTERIUM\LOGGER\LOGGER\X64\DEBUG\GHOSTLOGGER.OBJ
C:\USERS\ANDREI\DESKTOP\PROIECTE\PROIECT C++\MYSTERIUM\LOGGER\LOGGER\X64\DEBUG\CARDLOGGER.OBJ
C:\USERS\ANDREI\DESKTOP\PROIECTE\PROIECT C++\MYSTERIUM\LOGGER\LOGGER\X64\DEBUG\PLAYERLOGGER.OBJ
C:\WINDOWS\SYSTEM32\TZRES.DLL
C:\WINDOWS\GLOBALIZATION\SORTING\SORTDEFAULT.NLS
C:\PROGRAM FILES (X86)\MICROSOFT VISUAL STUDIO\2019\COMMUNITY\VC\TOOLS\MSVC\14.28.29333\LIB\X64\MSVCPRTD.LIB
C:\PROGRAM FILES (X86)\MICROSOFT VISUAL STUDIO\2019\COMMUNITY\VC\TOOLS\MSVC\14.28.29333\LIB\X64\MSVCRTD.LIB
C:\PROGRAM FILES (X86)\MICROSOFT VISUAL STUDIO\2019\COMMUNITY\VC\TOOLS\MSVC\14.28.29333\LIB\X64\OLDNAMES.LIB
C:\PROGRAM FILES (X86)\MICROSOFT VISUAL STUDIO\2019\COMMUNITY\VC\TOOLS\MSVC\14.28.29333\LIB\X64\VCRUNTIMED.LIB
C:\PROGRAM FILES (X86)\WINDOWS KITS\10\LIB\10.0.18362.0\UCRT\X64\UCRTD.LIB
C:\PROGRAM FILES (X86)\MICROSOFT VISUAL STUDIO\2019\COMMUNITY\VC\TOOLS\MSVC\14.28.29333\BIN\HOSTX86\X64\1033\LINKUI.DLL
C:\PROGRAM FILES (X86)\MICROSOFT VISUAL STUDIO\2019\COMMUNITY\VC\TOOLS\MSVC\14.28.29333\BIN\HOSTX86\X64\CVTRES.EXE
C:\PROGRAM FILES (X86)\MICROSOFT VISUAL STUDIO\2019\COMMUNITY\VC\TOOLS\MSVC\14.28.29333\BIN\HOSTX86\X64\MSPDBSRV.EXE
