#Command: "C:\Program Files (x86)\Microsoft Visual Studio\2019\Community\VC\Tools\MSVC\14.28.29333\bin\HostX86\x64\link.exe" /ERRORREPORT:PROMPT @C:\Users\Andrei\AppData\Local\Temp\tmpe77f7bcb4d53478499f409f0d6d1a468.rsp
^C:\USERS\ANDREI\DESKTOP\PROIECTE\PROIECT C++\MYSTERIUM\LOGGER\LOGGER\X64\DEBUG\CARDLOGGER.OBJ|C:\USERS\ANDREI\DESKTOP\PROIECTE\PROIECT C++\MYSTERIUM\LOGGER\LOGGER\X64\DEBUG\GAMEEVENTLOGGER.OBJ|C:\USERS\ANDREI\DESKTOP\PROIECTE\PROIECT C++\MYSTERIUM\LOGGER\LOGGER\X64\DEBUG\GHOSTLOGGER.OBJ|C:\USERS\ANDREI\DESKTOP\PROIECTE\PROIECT C++\MYSTERIUM\LOGGER\LOGGER\X64\DEBUG\PLAYERLOGGER.OBJ
C:\USERS\ANDREI\APPDATA\LOCAL\TEMP\LNK{7D7E69BF-D827-49D9-84BF-A6571F6951C9}.TMP
