^C:\USERS\ANDREI\DESKTOP\PROJECT-SMC_2020\MYSTERIUM\BUILD\OBJ\DEBUG\X64\BOARD.OBJ|C:\USERS\ANDREI\DESKTOP\PROJECT-SMC_2020\MYSTERIUM\BUILD\OBJ\DEBUG\X64\CHOOSEPLAYER.OBJ|C:\USERS\ANDREI\DESKTOP\PROJECT-SMC_2020\MYSTERIUM\BUILD\OBJ\DEBUG\X64\CLUECARD.OBJ|C:\USERS\ANDREI\DESKTOP\PROJECT-SMC_2020\MYSTERIUM\BUILD\OBJ\DEBUG\X64\FINALSCREEN.OBJ|C:\USERS\ANDREI\DESKTOP\PROJECT-SMC_2020\MYSTERIUM\BUILD\OBJ\DEBUG\X64\GHOSTBOARD.OBJ|C:\USERS\ANDREI\DESKTOP\PROJECT-SMC_2020\MYSTERIUM\BUILD\OBJ\DEBUG\X64\GHOSTBOARDPHASE2.OBJ|C:\USERS\ANDREI\DESKTOP\PROJECT-SMC_2020\MYSTERIUM\BUILD\OBJ\DEBUG\X64\GRAPHICSCARD.OBJ|C:\USERS\ANDREI\DESKTOP\PROJECT-SMC_2020\MYSTERIUM\BUILD\OBJ\DEBUG\X64\MAIN.OBJ|C:\USERS\ANDREI\DESKTOP\PROJECT-SMC_2020\MYSTERIUM\BUILD\OBJ\DEBUG\X64\MAINWINDOW.OBJ|C:\USERS\ANDREI\DESKTOP\PROJECT-SMC_2020\MYSTERIUM\BUILD\OBJ\DEBUG\X64\MYSTERIUMGAME.OBJ|C:\USERS\ANDREI\DESKTOP\PROJECT-SMC_2020\MYSTERIUM\BUILD\OBJ\DEBUG\X64\PLAYER.OBJ|C:\USERS\ANDREI\DESKTOP\PROJECT-SMC_2020\MYSTERIUM\BUILD\OBJ\DEBUG\X64\PLAYERBOARD.OBJ|C:\USERS\ANDREI\DESKTOP\PROJECT-SMC_2020\MYSTERIUM\BUILD\OBJ\DEBUG\X64\PLAYERBOARDPHASE2.OBJ|C:\USERS\ANDREI\DESKTOP\PROJECT-SMC_2020\MYSTERIUM\BUILD\OBJ\DEBUG\X64\PSYCHIC.OBJ|C:\USERS\ANDREI\DESKTOP\PROJECT-SMC_2020\MYSTERIUM\BUILD\OBJ\DEBUG\X64\STARTMENU.OBJ|C:\USERS\ANDREI\DESKTOP\PROJECT-SMC_2020\MYSTERIUM\BUILD\OBJ\DEBUG\X64\TUTORIAL.OBJ|C:\USERS\ANDREI\DESKTOP\PROJECT-SMC_2020\MYSTERIUM\BUILD\OBJ\DEBUG\X64\VISIONCARD.OBJ|C:\USERS\ANDREI\DESKTOP\PROJECT-SMC_2020\MYSTERIUM\X64\DEBUG\LOGGER.LIB
C:\USERS\ANDREI\DESKTOP\PROJECT-SMC_2020\MYSTERIUM\BUILD\BIN\DEBUG\X64\MYSTERIUM.ILK
C:\USERS\ANDREI\DESKTOP\PROJECT-SMC_2020\MYSTERIUM\BUILD\BIN\DEBUG\X64\MYSTERIUM.EXE
C:\USERS\ANDREI\DESKTOP\PROJECT-SMC_2020\MYSTERIUM\BUILD\BIN\DEBUG\X64\MYSTERIUM.PDB
^C:\USERS\ANDREI\DESKTOP\PROIECTE\PROIECT C++\MYSTERIUM\BUILD\OBJ\DEBUG\X64\BOARD.OBJ|C:\USERS\ANDREI\DESKTOP\PROIECTE\PROIECT C++\MYSTERIUM\BUILD\OBJ\DEBUG\X64\CHOOSEPLAYER.OBJ|C:\USERS\ANDREI\DESKTOP\PROIECTE\PROIECT C++\MYSTERIUM\BUILD\OBJ\DEBUG\X64\CLUECARD.OBJ|C:\USERS\ANDREI\DESKTOP\PROIECTE\PROIECT C++\MYSTERIUM\BUILD\OBJ\DEBUG\X64\FINALSCREEN.OBJ|C:\USERS\ANDREI\DESKTOP\PROIECTE\PROIECT C++\MYSTERIUM\BUILD\OBJ\DEBUG\X64\GHOSTBOARD.OBJ|C:\USERS\ANDREI\DESKTOP\PROIECTE\PROIECT C++\MYSTERIUM\BUILD\OBJ\DEBUG\X64\GHOSTBOARDPHASE2.OBJ|C:\USERS\ANDREI\DESKTOP\PROIECTE\PROIECT C++\MYSTERIUM\BUILD\OBJ\DEBUG\X64\GRAPHICSCARD.OBJ|C:\USERS\ANDREI\DESKTOP\PROIECTE\PROIECT C++\MYSTERIUM\BUILD\OBJ\DEBUG\X64\MAIN.OBJ|C:\USERS\ANDREI\DESKTOP\PROIECTE\PROIECT C++\MYSTERIUM\BUILD\OBJ\DEBUG\X64\MAINWINDOW.OBJ|C:\USERS\ANDREI\DESKTOP\PROIECTE\PROIECT C++\MYSTERIUM\BUILD\OBJ\DEBUG\X64\MYSTERIUMGAME.OBJ|C:\USERS\ANDREI\DESKTOP\PROIECTE\PROIECT C++\MYSTERIUM\BUILD\OBJ\DEBUG\X64\PLAYER.OBJ|C:\USERS\ANDREI\DESKTOP\PROIECTE\PROIECT C++\MYSTERIUM\BUILD\OBJ\DEBUG\X64\PLAYERBOARD.OBJ|C:\USERS\ANDREI\DESKTOP\PROIECTE\PROIECT C++\MYSTERIUM\BUILD\OBJ\DEBUG\X64\PLAYERBOARDPHASE2.OBJ|C:\USERS\ANDREI\DESKTOP\PROIECTE\PROIECT C++\MYSTERIUM\BUILD\OBJ\DEBUG\X64\PSYCHIC.OBJ|C:\USERS\ANDREI\DESKTOP\PROIECTE\PROIECT C++\MYSTERIUM\BUILD\OBJ\DEBUG\X64\STARTMENU.OBJ|C:\USERS\ANDREI\DESKTOP\PROIECTE\PROIECT C++\MYSTERIUM\BUILD\OBJ\DEBUG\X64\TUTORIAL.OBJ|C:\USERS\ANDREI\DESKTOP\PROIECTE\PROIECT C++\MYSTERIUM\BUILD\OBJ\DEBUG\X64\VISIONCARD.OBJ|C:\USERS\ANDREI\DESKTOP\PROIECTE\PROIECT C++\MYSTERIUM\X64\DEBUG\LOGGER.LIB
C:\USERS\ANDREI\DESKTOP\PROIECTE\PROIECT C++\MYSTERIUM\BUILD\BIN\DEBUG\X64\MYSTERIUM.ILK
C:\USERS\ANDREI\DESKTOP\PROIECTE\PROIECT C++\MYSTERIUM\BUILD\BIN\DEBUG\X64\MYSTERIUM.EXE
C:\USERS\ANDREI\DESKTOP\PROIECTE\PROIECT C++\MYSTERIUM\BUILD\BIN\DEBUG\X64\MYSTERIUM.PDB
